Final Project on Loneliness
…
responses

## # A tibble: 137 x 13
##    Tidsstempel respondent_gend… respondent_age respondent_occu… marital_status
##    <chr>       <chr>            <chr>          <chr>            <chr>         
##  1 2020/11/30… Female           25-35          Student          Single        
##  2 2020/11/30… Male             15-25          Student          Single        
##  3 2020/11/30… Female           25-35          Student          Cohabitant/Fa…
##  4 2020/11/30… Female           15-25          Student          Cohabitant/Fa…
##  5 2020/11/30… Female           25-35          Working          Single        
##  6 2020/11/30… Female           25-35          Working          Single        
##  7 2020/11/30… Female           15-25          Student          Single        
##  8 2020/11/30… Male             25-35          Student          Single        
##  9 2020/11/30… Male             25-35          Student          Cohabitant/Fa…
## 10 2020/11/30… Female           15-25          Working          Single        
## # … with 127 more rows, and 8 more variables: infected_with_covid <chr>,
## #   company_importance <chr>, influence_on_social_life <chr>,
## #   lack_of_company <chr>, most_lonely_period <chr>, feeling_lonely_time <chr>,
## #   feeling_lonely_extent <chr>, feeling_lonely_before_pandemic <chr>
…
